C:\Users\fbernardoazevedo\Desktop\Experience-Java-8-master\src\test\java\academy\elqoo\java8\labmda\LambdaTest.java
C:\Users\fbernardoazevedo\Desktop\Experience-Java-8-master\src\test\java\academy\elqoo\java8\defaultmethods\DefaultMethodsTest.java
C:\Users\fbernardoazevedo\Desktop\Experience-Java-8-master\src\test\java\academy\elqoo\java8\stream\StreamTest.java
C:\Users\fbernardoazevedo\Desktop\Experience-Java-8-master\src\test\java\academy\elqoo\java8\optional\OptionalTest.java
C:\Users\fbernardoazevedo\Desktop\Experience-Java-8-master\src\test\java\academy\elqoo\java8\dateandtime\DateAndTimeTest.java
